{
  "AstroNvim": { "branch": "main", "commit": "67b21f1c5680fd7ab7dd2b1bb68c5868e54f04ea" },
  "Comment.nvim": { "branch": "master", "commit": "0236521ea582747b58869cb72f70ccfa967d2e89" },
  "LuaSnip": { "branch": "master", "commit": "03c8e67eb7293c404845b3982db895d59c0d1538" },
  "aerial.nvim": { "branch": "master", "commit": "399e276328be8242ccde01d90f6f6c619f7bb24f" },
  "alpha-nvim": { "branch": "main", "commit": "41283fb402713fc8b327e60907f74e46166f4cfd" },
  "astrocommunity": { "branch": "main", "commit": "a9f25886a05f6cd707744da76e69429d56a18d80" },
  "astrocore": { "branch": "main", "commit": "745fa814abbb149f8ed2e5d3de114af5f7b923f7" },
  "astrolsp": { "branch": "main", "commit": "e1067ad87ef6f77d2c34d1583fd59193899dcd3f" },
  "astrotheme": { "branch": "main", "commit": "8b316aa3ecd8c4206430379c0b1da0b4e7969ab9" },
  "astroui": { "branch": "main", "commit": "e5c5d4570cb00d0e1b2d81db357d108b21503592" },
  "better-escape.nvim": { "branch": "master", "commit": "7e86edafb8c7e73699e0320f225464a298b96d12" },
  "catppuccin": { "branch": "main", "commit": "6af91673ceccbd6e073b66c439e7fce239f72d24" },
  "cmp-buffer": { "branch": "main", "commit": "3022dbc9166796b644a841a02de8dd1cc1d311fa" },
  "cmp-dap": { "branch": "master", "commit": "ea92773e84c0ad3288c3bc5e452ac91559669087" },
  "cmp-nvim-lsp": { "branch": "main", "commit": "5af77f54de1b16c34b23cba810150689a3a90312" },
  "cmp-path": { "branch": "main", "commit": "91ff86cd9c29299a64f968ebb45846c485725f23" },
  "cmp_luasnip": { "branch": "master", "commit": "05a9ab28b53f71d1aece421ef32fee2cb857a843" },
  "dressing.nvim": { "branch": "master", "commit": "42d767b04c50a6966c9633e3968bc65c0c2f2bfc" },
  "friendly-snippets": { "branch": "main", "commit": "fa36367422da5a38560892e3db6d090a635d9d41" },
  "gitsigns.nvim": { "branch": "main", "commit": "76927d14d3fbd4ba06ccb5246e79d93b5442c188" },
  "guess-indent.nvim": { "branch": "main", "commit": "b8ae749fce17aa4c267eec80a6984130b94f80b2" },
  "heirline.nvim": { "branch": "master", "commit": "03cff30d7e7d3ba6fdc00925f015822f79cef908" },
  "indent-blankline.nvim": { "branch": "master", "commit": "3d08501caef2329aba5121b753e903904088f7e6" },
  "lazy.nvim": { "branch": "main", "commit": "bef521ac89c8d423f9d092e37b58e8af0c099309" },
  "lspkind.nvim": { "branch": "master", "commit": "1735dd5a5054c1fb7feaf8e8658dbab925f4f0cf" },
  "mason-lspconfig.nvim": { "branch": "main", "commit": "1a14770dc8c7cb29643870ac79788eec6f7ce1f8" },
  "mason-null-ls.nvim": { "branch": "main", "commit": "2b8433f76598397fcc97318d410e0c4f7a4bea6a" },
  "mason-nvim-dap.nvim": { "branch": "main", "commit": "3614a39aae98ccd34124b072939d6283853b3dd2" },
  "mason.nvim": { "branch": "main", "commit": "c43eeb5614a09dc17c03a7fb49de2e05de203924" },
  "mini.bufremove": { "branch": "main", "commit": "931a3bb514147d9e812767275c4beba6b779b1d3" },
  "neo-tree.nvim": { "branch": "main", "commit": "7aad1bf3f6b849cbf108e02c55ad4d701cb4d33a" },
  "neoconf.nvim": { "branch": "main", "commit": "f8947e998dac4213f6c7bb1c7b843cba64db22dd" },
  "neodev.nvim": { "branch": "main", "commit": "da1562e1e3df0e994ddc52cb4ba22376a5d7f2fc" },
  "none-ls.nvim": { "branch": "main", "commit": "f5632db2491fbe02b54f1a321a98548a8ba2bd15" },
  "nui.nvim": { "branch": "main", "commit": "a0fd35fcbb4cb479366f1dc5f20145fd718a3733" },
  "nvim-autopairs": { "branch": "master", "commit": "14e97371b2aab6ee70054c1070a123dfaa3e217e" },
  "nvim-cmp": { "branch": "main", "commit": "8f3c541407e691af6163e2447f3af1bd6e17f9a3" },
  "nvim-colorizer.lua": { "branch": "master", "commit": "85855b38011114929f4058efc97af1059ab3e41d" },
  "nvim-dap": { "branch": "master", "commit": "9d81c11fd185a131f81841e64941859305f6c42d" },
  "nvim-dap-ui": { "branch": "master", "commit": "5934302d63d1ede12c0b22b6f23518bb183fc972" },
  "nvim-lspconfig": { "branch": "master", "commit": "2beb3e9cac3ed9335f8972eb6082f380a4f1f124" },
  "nvim-nio": { "branch": "master", "commit": "8765cbc4d0c629c8158a5341e1b4305fd93c3a90" },
  "nvim-notify": { "branch": "master", "commit": "5371f4bfc1f6d3adf4fe9d62cd3a9d44356bfd15" },
  "nvim-treesitter": { "branch": "master", "commit": "da0efd7398713a3177da5ce8690f0e5c5415763d" },
  "nvim-treesitter-textobjects": { "branch": "master", "commit": "23b820146956b3b681c19e10d3a8bc0cbd9a1d4c" },
  "nvim-ts-autotag": { "branch": "main", "commit": "531f48334c422222aebc888fd36e7d109cb354cd" },
  "nvim-ts-context-commentstring": { "branch": "main", "commit": "0bdccb9c67a42a5e2d99384dc9bfa29b1451528f" },
  "nvim-ufo": { "branch": "main", "commit": "a5390706f510d39951dd581f6d2a972741b3fa26" },
  "nvim-web-devicons": { "branch": "master", "commit": "5b9067899ee6a2538891573500e8fd6ff008440f" },
  "nvim-window-picker": { "branch": "main", "commit": "41cfaa428577c53552200a404ae9b3a0b5719706" },
  "plenary.nvim": { "branch": "master", "commit": "50012918b2fc8357b87cff2a7f7f0446e47da174" },
  "promise-async": { "branch": "main", "commit": "38a4575da9497326badd3995e768b4ccf0bb153e" },
  "resession.nvim": { "branch": "master", "commit": "dc8825439c619030925543a444c4186a2487c200" },
  "smart-splits.nvim": { "branch": "master", "commit": "2179ec0d26aacd4f40c766c79f6ebc83b7001e48" },
  "telescope-fzf-native.nvim": { "branch": "main", "commit": "9ef21b2e6bb6ebeaf349a0781745549bbb870d27" },
  "telescope.nvim": { "branch": "master", "commit": "6312868392331c9c0f22725041f1ec2bef57c751" },
  "todo-comments.nvim": { "branch": "main", "commit": "a7e39ae9e74f2c8c6dc4eea6d40c3971ae84752d" },
  "toggleterm.nvim": { "branch": "main", "commit": "066cccf48a43553a80a210eb3be89a15d789d6e6" },
  "vim-illuminate": { "branch": "master", "commit": "e522e0dd742a83506db0a72e1ced68c9c130f185" },
  "which-key.nvim": { "branch": "main", "commit": "ce741eb559c924d72e3a67d2189ad3771a231414" }
}